…
long_study
```

    ## # A tibble: 160 × 4
    ##    arm   subject_ID week  observations
    ##    <chr> <chr>      <chr>        <dbl>
    ##  1 con   01         1             0.2 
    ##  2 con   01         2            -1.31
    ##  3 con   01         3             0.66
    ##  4 con   01         4             1.96
    ##  5 con   01         5             0.23
    ##  6 con   01         6             1.09
    ##  7 con   01         7             0.05
    ##  8 con   01         8             1.94
    ##  9 con   02         1             1.13
    ## 10 con   02         2            -0.88
    ## # … with 150 more rows
…
}
```

``` r
all_cities_stat = 
  all_cities %>% 
  mutate(
    map_df(all_cities[["data"]], prop_unsolved)) %>% 
  unnest(data)

all_cities_stat
```

    ## # A tibble: 50 × 6
    ##    city_state      n_case n_unsolved estimate conf.low conf.high
    ##    <chr>            <int>      <int>    <dbl>    <dbl>     <dbl>
    ##  1 Albuquerque, NM    378        146    0.386    0.337     0.438
    ##  2 Atlanta, GA        973        373    0.383    0.353     0.415
    ##  3 Baltimore, MD     2827       1825    0.646    0.628     0.663
    ##  4 Baton Rouge, LA    424        196    0.462    0.414     0.511
    ##  5 Birmingham, AL     800        347    0.434    0.399     0.469
    ##  6 Boston, MA         614        310    0.505    0.465     0.545
    ##  7 Buffalo, NY        521        319    0.612    0.569     0.654
    ##  8 Charlotte, NC      687        206    0.300    0.266     0.336
    ##  9 Chicago, IL       5535       4073    0.736    0.724     0.747
    ## 10 Cincinnati, OH     694        309    0.445    0.408     0.483
    ## # … with 40 more rows
…
Apply function to the list and store the output in a nice dataframe.

``` r
first_list_df = 
  tibble(
  sample = first_set)

test_one = map_df(first_set, samp_mean_p)

First_set_tidy = bind_cols(first_list_df, test_one)

First_set_tidy
```

    ## # A tibble: 5,000 × 3
    ##    sample     mean_hat p_value
    ##    <list>        <dbl>   <dbl>
    ##  1 <dbl [30]>    1.62   0.131 
    ##  2 <dbl [30]>   -0.535  0.536 
    ##  3 <dbl [30]>    0.685  0.470 
    ##  4 <dbl [30]>    1.82   0.0642
    ##  5 <dbl [30]>    1.64   0.0179
    ##  6 <dbl [30]>    1.76   0.0893
    ##  7 <dbl [30]>    1.60   0.102 
    ##  8 <dbl [30]>    0.819  0.320 
    ##  9 <dbl [30]>    0.550  0.493 
    ## 10 <dbl [30]>    0.940  0.302 
    ## # … with 4,990 more rows
…
